<?xml version="1.0" encoding="utf-8"?>
<svg width="100%" height="100%" xmlns="http://www.w3.org/2000/svg" viewBox="0 0 100 100" preserveAspectRatio="xMidYMid" class="uil-pie">
	<rect x="0" y="0" width="100" height="100" fill="none" class="bk"></rect>
	<path d="M0 50A50 50 0 0 1 50 0L50 50L0 50" fill="#000" opacity="0.5">
		<animateTransform attributeName="transform" type="rotate" from="0 50 50" to="360 50 50" dur="0.8s" repeatCount="indefinite"></animateTransform>
	</path>
	<path d="M50 0A50 50 0 0 1 100 50L50 50L50 0" fill="#000" opacity="0.5">
		<animateTransform attributeName="transform" type="rotate" from="0 50 50" to="360 50 50" dur="1.6s" repeatCount="indefinite"></animateTransform>
	</path>
	<path d="M100 50A50 50 0 0 1 50 100L50 50L100 50" fill="#000" opacity="0.5">
		<animateTransform attributeName="transform" type="rotate" from="0 50 50" to="360 50 50" dur="2.4s" repeatCount="indefinite"></animateTransform>
	</path>
	<path d="M50 100A50 50 0 0 1 0 50L50 50L50 100" fill="#000" opacity="0.5">
		<animateTransform attributeName="transform" type="rotate" from="0 50 50" to="360 50 50" dur="3.2s" repeatCount="indefinite"></animateTransform>
	</path>
</svg>